<svg xmlns="http://www.w3.org/2000/svg" width="110" height="110" viewBox="0 0 110 110">
  <defs>
    <style>
      .cls-1 {
        fill: #ffffff;
        fill-rule: evenodd;
      }
    </style>
  </defs>
  <path class="cls-1" d="M1897.52,8009.06h-5.39c-4.12,0-4.9,2.3-4.9,5.67v7.44h9.88l-1.28,11.46h-8.6v24.97h-10.17v-24.97h-8.62v-11.46h8.63v-8.67c0-9.97,5.12-15.44,12.72-15.44a64.026,64.026,0,0,1,7.73.43v10.57Z" transform="translate(-1827.985 -7973.325)"/>
</svg>
