<svg id="ico-dan2" xmlns="http://www.w3.org/2000/svg" width="24" height="32" viewBox="0 0 24 32">
  <defs>
    <style>
      .cls-1, .cls-2 {
        fill: #1e1f1f;
      }

      .cls-2, .cls-3 {
        fill-rule: evenodd;
      }

      .cls-3 {
        fill: #fff200;
      }

      .cls-4 {
        fill: #fff200;
      }
    </style>
  </defs>

  <path id="Фигура_3" data-name="Фигура 3" class="cls-4" d="M4225.32,414.8a2.252,2.252,0,0,1,.24-1.056,2.455,2.455,0,0,1,.63-0.778,2.76,2.76,0,0,1,.89-0.486,3.213,3.213,0,0,1,1.03-.168,3.294,3.294,0,0,1,1.05.175,2.77,2.77,0,0,1,.93.518,2.542,2.542,0,0,1,.65.842,2.489,2.489,0,0,1,.25,1.147,2.72,2.72,0,0,1-.28,1.258,4.381,4.381,0,0,1-.71,1,6.388,6.388,0,0,1-.92.8c-0.33.237-.64,0.462-0.92,0.674a7.519,7.519,0,0,0-.71.6,0.845,0.845,0,0,0-.28.577v0.117h3.24a0.5,0.5,0,0,1,.41.259,1.113,1.113,0,0,1,.17.609,1.181,1.181,0,0,1-.17.622,0.493,0.493,0,0,1-.41.272h-4.4a0.883,0.883,0,0,1-.28-0.046,1.134,1.134,0,0,1-.27-0.123,0.6,0.6,0,0,1-.21-0.193,0.406,0.406,0,0,1-.08-0.26v-1.257a1.67,1.67,0,0,1,.29-0.953,4.191,4.191,0,0,1,.72-0.843q0.435-.394.93-0.771c0.34-.25.65-0.5,0.94-0.745a4.838,4.838,0,0,0,.72-0.745,1.294,1.294,0,0,0,.29-0.791,0.893,0.893,0,0,0-.05-0.317,0.742,0.742,0,0,0-.16-0.3,0.772,0.772,0,0,0-.29-0.221,1.131,1.131,0,0,0-1.09.13,0.916,0.916,0,0,0-.27.758,0.672,0.672,0,0,1-.28.512,1.117,1.117,0,0,1-.74.227,0.908,0.908,0,0,1-.62-0.22A1.111,1.111,0,0,1,4225.32,414.8Z" transform="translate(-4216 -390)"/>
  <path id="Фигура_1" data-name="Фигура 1" class="cls-2" d="M4237.41,395.391h-6.43V395.6l6.66,16.355a1.484,1.484,0,0,1-.83,1.923,0.186,0.186,0,0,1-.02.01,1.6,1.6,0,0,1-.57.106,1.525,1.525,0,0,1-1.41-.937L4228.2,396.8h-0.22l-5.31,13.851a1.512,1.512,0,0,1-1.95.864,1.478,1.478,0,0,1-.89-1.91V409.6l5.26-13.706q-0.015-.055-0.03-0.114v-0.394h-6.53a1.488,1.488,0,0,1-.07-2.976h6.6v-0.388A1.033,1.033,0,0,1,4226.1,391h3.84a1.033,1.033,0,0,1,1.04,1.013v0.4h6.43a1.488,1.488,0,0,1,.13,2.974C4237.5,395.393,4237.45,395.393,4237.41,395.391Z" transform="translate(-4216 -390)"/>
  <path id="Фигура_1_копия" data-name="Фигура 1 копия" class="cls-3" d="M4232.75,408.8l3.38-1.336,0.22,0.529-3.38,1.337Zm-0.49-1.191,3.38-1.336,0.22,0.529-3.38,1.336Z" transform="translate(-4216 -390)"/>
</svg>
